Project: Data Cleaning and QC
…
length(data$soilTemperature[data$soilTemperature < - 50])

## [1] 312

# replace everything below -50 degree with NA
(data <- data %>% mutate_at("soilTemperature", ~ifelse(. < -50 , NA, .)))

## # A tibble: 1,071 x 7
##    date       airTemperature atmPressure netRadiation rainfall
##    <date>              <dbl>       <dbl>        <dbl>    <dbl>
##  1 2015-09-12             NA        994.        75.9     0.398
##  2 2015-09-13             NA        990.         5.56   11.5  
##  3 2015-09-14             NA        985.         9.08   31.4  
##  4 2015-09-15             NA        987.        86.7     6.77 
##  5 2015-09-16             NA        984.        54.9     0.199
##  6 2015-09-17             NA        989.        64.2     1.19 
##  7 2015-09-18             NA       1003.        42.4     0    
##  8 2015-09-19             NA       1014.        42.1     0    
##  9 2015-09-20             NA       1009.         2.75    5.77 
## 10 2015-09-21             NA       1000.        35.0     5.17 
## #  with 1,061 more rows, and 2 more variables: relativeHumidity <dbl>,
## #   soilTemperature <dbl>
…
index <- which(d$outliers)
dat.noNA[index,]

## # A tibble: 141 x 7
##    date       airTemperature atmPressure netRadiation rainfall
##    <date>              <dbl>       <dbl>        <dbl>    <dbl>
##  1 2015-11-13           5.44       1007.       -38.0     9.75 
##  2 2015-11-14          11.3        1004.       -12.5     5.17 
##  3 2015-11-17           8.84        989.        -1.14    4.38 
##  4 2015-11-18          10.7         994.         2.91   15.3  
##  5 2015-11-20           4.76       1003.       -38.1     2.98 
##  6 2015-11-21           3.66       1009.       -30.3     6.96 
##  7 2015-11-23           5.77       1011.        -8.00    2.98 
##  8 2015-12-07          12.5         996.       -18.5     3.18 
##  9 2015-12-18          12.4         996.       -19.1     4.78 
## 10 2016-01-10           2.61        969        -46.5     0.199
## #  with 131 more rows, and 2 more variables: relativeHumidity <dbl>,
## #   soilTemperature <dbl>
…
